module gitlab.com/erudinsky1/evaluatador

go 1.21.4

require (
	github.com/dustin/go-humanize v1.0.1
	github.com/jedib0t/go-pretty/v6 v6.4.9
	github.com/microsoft/azure-devops-go-api/azuredevops/v7 v7.1.0
	github.com/spf13/cobra v1.8.0
	github.com/spf13/viper v1.17.0
	github.com/xuri/excelize/v2 v2.8.0
)

require (
	github.com/fsnotify/fsnotify v1.6.0 // indirect
	github.com/google/uuid v1.4.0 // indirect
	github.com/hashicorp/hcl v1.0.0 // indirect
	github.com/inconshreveable/mousetrap v1.1.0 // indirect
	github.com/magiconair/properties v1.8.7 // indirect
	github.com/mattn/go-runewidth v0.0.13 // indirect
	github.com/mitchellh/mapstructure v1.5.0 // indirect
	github.com/mohae/deepcopy v0.0.0-20170929034955-c48cc78d4826 // indirect
	github.com/pelletier/go-toml/v2 v2.1.0 // indirect
	github.com/richardlehane/mscfb v1.0.4 // indirect
	github.com/richardlehane/msoleps v1.0.3 // indirect
	github.com/rivo/uniseg v0.2.0 // indirect
	github.com/sagikazarmark/locafero v0.3.0 // indirect
	github.com/sagikazarmark/slog-shim v0.1.0 // indirect
	github.com/sourcegraph/conc v0.3.0 // indirect
	github.com/spf13/afero v1.10.0 // indirect
	github.com/spf13/cast v1.5.1 // indirect
	github.com/spf13/pflag v1.0.5 // indirect
	github.com/subosito/gotenv v1.6.0 // indirect
	github.com/xuri/efp v0.0.0-20230802181842-ad255f2331ca // indirect
	github.com/xuri/nfp v0.0.0-20230819163627-dc951e3ffe1a // indirect
	go.uber.org/atomic v1.9.0 // indirect
	go.uber.org/multierr v1.9.0 // indirect
	golang.org/x/crypto v0.13.0 // indirect
	golang.org/x/exp v0.0.0-20230905200255-921286631fa9 // indirect
	golang.org/x/net v0.15.0 // indirect
	golang.org/x/sys v0.12.0 // indirect
	golang.org/x/text v0.13.0 // indirect
	gopkg.in/ini.v1 v1.67.0 // indirect
	gopkg.in/yaml.v3 v3.0.1 // indirect
)
